"id","attachment_type_id","path","metadata","extra","purged","date_purged","created","count_attachment","count_like","count_comments"
"1","1","/test","metadata prueba","ASD","NULL","NULL","2020-04-14T07:30:27.907623","NULL","0","11"
"17","3","1600264535694-frank_sinatra_-_stephanie_rock_n_roll_-_fly_me_to_the_moon.mp3","1600264555605-zona_confort.jpeg","frank sinatra - stephanie rock n roll - fly me to the moon.mp3","false","2020-09-16T09:55:56","2020-09-16T09:55:56.135","1","NULL","NULL"
"18","1","1600268857161-acaban_energia.jpeg","NULL","acaban_energia.jpeg","false","2020-09-16T11:07:43","2020-09-16T11:07:43.441","2","NULL","NULL"
"19","1","1600281287082-Volumen_datos.png","NULL","Volumen_datos.png","false","2020-09-16T14:34:58","2020-09-16T14:34:57.853","3","NULL","NULL"
"20","1","1600398096394-Bandas_2.jpg","NULL","Bandas_2.jpg","false","2020-09-18T03:01:37","2020-09-17T23:01:36.937","4","NULL","NULL"
"21","2","1600440536784-118656689_594381291256078_573463918412493396_n.mp4","NULL","118656689_594381291256078_573463918412493396_n.mp4","false","2020-09-18T14:48:57","2020-09-18T10:48:57.041","5","NULL","NULL"
"22","1","1600444827585-2e8a4149d974c46e2da30589f03ecdf8.jpg","NULL","2e8a4149d974c46e2da30589f03ecdf8.jpg","false","2020-09-18T16:00:28","2020-09-18T12:00:27.805","6","NULL","NULL"
"23","1","1600444831788-2e8a4149d974c46e2da30589f03ecdf8.jpg","NULL","2e8a4149d974c46e2da30589f03ecdf8.jpg","false","2020-09-18T16:00:32","2020-09-18T12:00:31.882","7","NULL","NULL"
"24","2","1600444867396-118656689_594381291256078_573463918412493396_n.mp4","NULL","118656689_594381291256078_573463918412493396_n.mp4","false","2020-09-18T16:01:08","2020-09-18T12:01:07.62","8","NULL","NULL"
"25","1","1600481303717-1673_iron_man_minimal_artwork_4k-1920x1080.jpg","NULL","1673_iron_man_minimal_artwork_4k-1920x1080.jpg","false","2020-09-19T02:08:24","2020-09-18T22:08:23.974","9","NULL","NULL"
"26","1","1600481303984-1672_iron-man-minimalism-4k-sp-1600x900.jpg","NULL","1672_iron-man-minimalism-4k-sp-1600x900.jpg","false","2020-09-19T02:08:24","2020-09-18T22:08:24.108","10","NULL","NULL"
"27","1","1600481485951-1673_iron_man_minimal_artwork_4k-1920x1080.jpg","NULL","1673_iron_man_minimal_artwork_4k-1920x1080.jpg","false","2020-09-19T02:11:26","2020-09-18T22:11:26.091","11","NULL","NULL"
"28","1","1600481543462-1673_iron_man_minimal_artwork_4k-1920x1080.jpg","NULL","1673_iron_man_minimal_artwork_4k-1920x1080.jpg","false","2020-09-19T02:12:24","2020-09-18T22:12:23.606","12","NULL","NULL"
"29","1","1600485856571-239_16-12-24-AdobeStock_309195144-post-dia-mundial-naturaleza.jpeg","NULL","239_16-12-24-AdobeStock_309195144-post-dia-mundial-naturaleza.jpeg","false","2020-09-19T03:24:17","2020-09-18T23:24:16.817","13","NULL","NULL"
"30","1","1600485953959-554_IMG_20200917_100922.jpg","NULL","554_IMG_20200917_100922.jpg","false","2020-09-19T03:25:54","2020-09-18T23:25:54.248","14","NULL","NULL"
"31","1","1600514912387-559_IMG-20200917-WA0033.jpg","NULL","559_IMG-20200917-WA0033.jpg","false","2020-09-19T11:28:33","2020-09-19T07:28:32.589","15","NULL","NULL"
"32","1","1600517052006-244_16-14-14-EyCLEMLJpah7PNwoh-qFtmO6F0mRG1GuhQne1IPc3Ct3cz_3Ns6qxAmsnygcXNpFOZMBxNuwu1Qs6NijQhN-koD99EzOYgNgdE54VMHJZQGI6BzXTFqCU99e-HY.jpg","NULL","244_16-14-14-EyCLEMLJpah7PNwoh-qFtmO6F0mRG1GuhQne1IPc3Ct3cz_3Ns6qxAmsnygcXNpFOZMBxNuwu1Qs6NijQhN-koD99EzOYgNgdE54VMHJZQGI6BzXTFqCU99e-HY.jpg","false","2020-09-19T12:04:12","2020-09-19T08:04:12.171","16","NULL","NULL"
"33","1","1600517071424-242_16-13-00-QuÃ©-es-el-amor-a-la-naturaleza-.jpg","NULL","242_16-13-00-QuÃ©-es-el-amor-a-la-naturaleza-.jpg","false","2020-09-19T12:04:32","2020-09-19T08:04:31.517","17","NULL","NULL"
"34","1","1600806753916-1673_iron_man_minimal_artwork_4k-1920x1080.jpg","NULL","1673_iron_man_minimal_artwork_4k-1920x1080.jpg","false","2020-09-22T20:32:34","2020-09-22T16:32:34.435","18","NULL","NULL"
"35","1","1600807427003-dinbog_2020-09-22_16:43:30.174852.jpg","NULL","dinbog_2020-09-22 16:43:30.174852.jpg","false","2020-09-22T20:43:47","2020-09-22T16:43:47.23","19","NULL","NULL"
"36","2","1600916120570-dinbog_2020-09-23_22:54:19.413490.mp4","NULL","dinbog_2020-09-23 22:54:19.413490.mp4","false","2020-09-24T02:55:21","2020-09-23T22:55:20.895","20","NULL","NULL"
"37","2","1600917345696-dinbog_2020-09-23_23:14:38.923911.mp4","NULL","dinbog_2020-09-23 23:14:38.923911.mp4","false","2020-09-24T03:15:46","2020-09-23T23:15:45.943","21","NULL","NULL"
"38","2","1600917756650-dinbog_2020-09-23_23:22:17.295433.mp4","NULL","dinbog_2020-09-23 23:22:17.295433.mp4","false","2020-09-24T03:22:37","2020-09-23T23:22:36.878","22","NULL","NULL"
