"id","name","iso_code_language"
"1","African","NULL"
"2","Albanian","NULL"
"3","German","NULL"
"4","Arabic","NULL"
"5","Armenian","NULL"
"6","Belarusian","NULL"
"7","Bosnian","NULL"
"8","Bulgarian","NULL"
"9","Czech","NULL"
"10","Chinese","NULL"
"11","Korean","NULL"
"12","Croatian","NULL"
"13","Danish","NULL"
"14","Scottish","NULL"
"15","Español","NULL"
"16","Estonian","NULL"
"17","Philippine","NULL"
"18","Finnish","NULL"
"19","Fijian","NULL"
"20","French","NULL"
"21","Wales","NULL"
"22","Greek","NULL"
"23","Haitian","NULL"
"24","Hebrew","NULL"
"25","Hindu","NULL"
"26","Dutch","NULL"
"27","Hungarian","NULL"
"28","Indonesian","NULL"
"29","English","NULL"
"30","Irish","NULL"
"31","Icelandic","NULL"
"32","Italian","NULL"
"33","Japanese","NULL"
"34","Kinyarwanda","NULL"
"35","Kirundi","NULL"
"36","Kurdish","NULL"
"37","Lithuanian","NULL"
"38","Luxembourg","NULL"
"39","Malay","NULL"
"40","Malagasy","NULL"
"41","Maltese","NULL"
"42","Mandarin","NULL"
"43","Maori","NULL"
"44","Montenegrin","NULL"
"45","Nauruan","NULL"
"46","Norwegian","NULL"
"47","Papiamentu","NULL"
"48","Polish","NULL"
"49","Portuguese","NULL"
"50","Romanian","NULL"
"51","Russian","NULL"
"52","Serbian","NULL"
"53","Setswana","NULL"
"54","Swahili","NULL"
"55","Swedish","NULL"
"56","Thai","NULL"
"57","Turkish","NULL"
"58","Ukrainian","NULL"
"59","Urdu","NULL"
"60","Uzbek","NULL"
"61","Vietnamese","NULL"
"62","Egyptian Arabic","NULL"
"63","Persian","NULL"
"64","Oromo","NULL"
"65","Tigrinya","NULL"
