"id","route","name","is_available","created"
"4","/test1","ruta test","true","2020-04-11T16:33:42"
"5","/test2","ruta test 2","true","2020-04-11T16:33:56"
"6","/admin1","ruta admin 1","true","2020-04-11T16:35:05"
"7","/admin2","ruta admin 2","true","2020-04-11T16:35:20"
