"id","notification_type_id","key","value","value_spa","value_fra","value_ita","value_por","value_rus","value_chi"
"22","7","attachment_comment_like","comment like","NULL","NULL","NULL","NULL","NULL","NULL"
"23","7","attachment_comment_mention","comment mention","NULL","NULL","NULL","NULL","NULL","NULL"
"24","2","post_comment_like","comment like","NULL","NULL","NULL","NULL","NULL","NULL"
"25","2","post_comment_mention","comment mention","NULL","NULL","NULL","NULL","NULL","NULL"
"26","4","album_comment_like","comment like","NULL","NULL","NULL","NULL","NULL","NULL"
"27","4","album_comment_mention","comment mention","NULL","NULL","NULL","NULL","NULL","NULL"
"28","3","event_participant_acepted","participant acepted","NULL","NULL","NULL","NULL","NULL","NULL"
"29","3","event_participant_profile_connection","participant profile connection","NULL","NULL","NULL","NULL","NULL","NULL"
"31","3","event_participant_confirmed_attendance","participant attendance confirmed","NULL","NULL","NULL","NULL","NULL","NULL"
"32","1","profile_request_connection_accepted","request connection accepted","NULL","NULL","NULL","NULL","NULL","NULL"
"33","1","profile_request_connection_cancelled","profile request connection cancelled","NULL","NULL","NULL","NULL","NULL","NULL"
"36","1","profile_request_connection_denied","profile request connection reject","NULL","NULL","NULL","NULL","NULL","NULL"
"37","3","event_wait","event wait","NULL","NULL","NULL","NULL","NULL","NULL"
"38","3","event_approved","event approved","NULL","NULL","NULL","NULL","NULL","NULL"
"39","3","event_denied","event denied","NULL","NULL","NULL","NULL","NULL","NULL"
"1","1","like","like","NULL","NULL","NULL","NULL","NULL","NULL"
"8","1","follow","follow","NULL","NULL","NULL","NULL","NULL","NULL"
"11","1","profile_request_connection","request connection","NULL","NULL","NULL","NULL","NULL","NULL"
"12","2","like","like","NULL","NULL","NULL","NULL","NULL","NULL"
"13","2","comment","comment","NULL","NULL","NULL","NULL","NULL","NULL"
"14","2","mention","mention","NULL","NULL","NULL","NULL","NULL","NULL"
"15","4","like","like","NULL","NULL","NULL","NULL","NULL","NULL"
"16","4","comment","comment","NULL","NULL","NULL","NULL","NULL","NULL"
"17","3","event_invitation","invitation","NULL","NULL","NULL","NULL","NULL","NULL"
"18","3","event_participant","participant","NULL","NULL","NULL","NULL","NULL","NULL"
"19","7","attachment_like","like","NULL","NULL","NULL","NULL","NULL","NULL"
"20","7","attachment_comment","comment","NULL","NULL","NULL","NULL","NULL","NULL"
"21","5","poll_participant","participant","NULL","NULL","NULL","NULL","NULL","NULL"
"40","5","poll_participant_vote","vote","NULL","NULL","NULL","NULL","NULL","NULL"
"10","1","profile_recommendation","recommendation","NULL","NULL","NULL","NULL","NULL","NULL"
