"id","user_id","url_name","full_name","profile_type_id","is_searchable","searchable_since","membership_id","count_like","count_follow","count_followers","count_conections","count_post","count_views","registration_step","created","cover_id","is_whitelist","token_firebase","avatar_path","phone_number"
"93","114","ruben.pacheco","Ruben","1","true","1992-12-03T20:00:00","1","0","0","0","0","0","0","NULL","2020-09-08T14:30:30.43","NULL","NULL","NULL","http://52.207.106.153/api-guide/ver3/#resources-profile-create","666-666-66666"
"94","114","ruben.pacheco2934","Ruben","1","true","2020-09-08T16:25:56.398","1","0","0","0","0","0","0","NULL","2020-09-08T16:25:56.398","NULL","NULL","NULL","http://52.207.106.153/api-guide/ver3/#resources-profile-create","666-666-66666"
"96","114","ruben.pacheco8501","Ruben","1","true","2020-09-09T16:57:05.299","1","0","0","0","0","0","0","NULL","2020-09-09T16:57:05.299","NULL","NULL","NULL","http://52.207.106.153/api-guide/ver3/#resources-profile-create","666-666-66666"
"98","114","ruben.pacheco8966","Ruben","1","true","2020-09-09T17:32:00.435","1","0","0","0","0","0","0","NULL","2020-09-09T17:32:00.435","NULL","NULL","NULL","http://52.207.106.153/api-guide/ver3/#resources-profile-create","666-666-66666"
"97","114","ruben.pacheco1174","Ruben","1","true","1992-12-03T20:00:00","1","0","0","0","0","0","0","NULL","2020-09-09T17:27:26.931","NULL","NULL","NULL","http://52.207.106.153/api-guide/ver3/#resources-profile-create","666-666-66666"
"101","125","ruben.pacheco5974","Ruben","1","true","2020-09-15T17:00:53.221","1","0","0","0","0","0","0","NULL","2020-09-15T17:00:53.221","NULL","NULL","NULL","http://52.207.106.153/api-guide/ver3/#resources-profile-create","666-666-66666"
"102","135","ligia.lopez","Ligia","1","true","2020-09-16T09:53:22.126","1","0","0","0","0","0","0","NULL","2020-09-16T09:53:22.126","NULL","NULL","NULL","http://52.207.106.153/api-guide/ver3/#resources-profile-create","666-666-66666"
"104","136","tomas.fortino","Tomas Fortino","1","true","2020-09-16T14:16:57.056","1","0","0","0","0","0","0","NULL","2020-09-16T14:16:57.056","NULL","NULL","NULL","http://52.207.106.153/api-guide/ver3/#resources-profile-create","666-666-66666"
"105","137","andrés.jiménez","Andrés Jiménez","1","true","2020-09-18T12:02:55.321","1","0","0","0","0","0","0","NULL","2020-09-18T08:02:55.321","NULL","NULL","NULL","http://52.207.106.153/api-guide/ver3/#resources-profile-create","123-123-123456"
"106","138","test.test","test test","1","true","2020-09-19T03:08:40.712","1","0","0","0","0","0","0","NULL","2020-09-18T23:08:40.712","NULL","NULL","NULL","http://52.207.106.153/api-guide/ver3/#resources-profile-create","123-123-123456"
"107","137","andrés.jiménez7890","Andrés Jiménez","1","true","2020-09-21T12:29:06.787","1","0","0","0","0","0","0","NULL","2020-09-21T08:29:06.787","NULL","NULL","NULL","http://52.207.106.153/api-guide/ver3/#resources-profile-create","123-123-123456"
"108","139","test.test2857","test test","1","true","2020-09-21T12:47:59.808","1","0","0","0","0","0","0","NULL","2020-09-21T08:47:59.808","NULL","NULL","NULL","http://52.207.106.153/api-guide/ver3/#resources-profile-create","123-123-123456"
