"id","name","description","is_active","created"
"1","Actor","Actor","true","2020-03-09T17:59:29.446434"
"2","Model","Model","true","2020-04-17T13:47:53.6293"
"3","Dancer","Dancer","true","2020-04-17T13:58:41.433714"
