"id","group_id","user_id"
"2","1","2"
"3","1","3"
"4","1","4"
"5","1","5"
"11","1","7"
"15","1","11"
"16","1","12"
"18","1","14"
"23","1","19"
"24","1","20"
"25","1","21"
"26","1","22"
"27","1","23"
"28","1","24"
"29","1","25"
"30","1","26"
"31","1","27"
"32","1","28"
"34","2","30"
"35","2","31"
"36","2","32"
"37","2","33"
"38","2","34"
"39","2","35"
"40","2","36"
"41","2","37"
"43","2","39"
"44","2","40"
"45","2","41"
"46","2","42"
"47","2","43"
"48","2","44"
"49","2","45"
"52","2","48"
"61","1","60"
"62","1","61"
"63","1","62"
"64","1","63"
"66","1","65"
"88","1","87"
"89","1","88"
"90","1","89"
"91","1","90"
"92","1","91"
"93","1","93"
"94","1","94"
"95","1","95"
"96","1","96"
"97","1","97"
"98","1","98"
"99","1","99"
"100","1","100"
"101","1","101"
"102","1","102"
"103","1","103"
"104","1","104"
"105","1","105"
"106","1","106"
"107","1","107"
"108","1","108"
"109","1","109"
"110","1","110"
"112","1","112"
"113","1","113"
"114","1","114"
"115","1","115"
"116","1","116"
"117","1","117"
"118","1","118"
"119","1","119"
"120","1","120"
"121","1","121"
"122","1","122"
"123","1","123"
"124","1","124"
"125","1","125"
"126","1","126"
"127","1","127"
"128","1","128"
"130","1","130"
"131","1","131"
"132","1","132"
"133","1","133"
"134","1","134"
"135","1","135"
"136","1","136"
"137","1","137"
"138","1","138"
"139","1","139"
"140","1","140"
"141","1","141"
"142","1","142"
"143","1","143"
"144","1","144"
